%YAML 1.1
%TAG !u! tag:unity3d.com,2011:
--- !u!1045 &1
EditorBuildSettings:
  m_ObjectHideFlags: 0
  serializedVersion: 2
  m_Scenes:
  - enabled: 1
    path: Assets/levellar/acilis.unity
    guid: d5b583c55b8012f47955b0a0267afebe
  - enabled: 1
    path: Assets/levellar/mainmenu.unity
    guid: 39b845432a329d946ad116848a6df514
  - enabled: 1
    path: Assets/levellar/skins.unity
    guid: 341b649bcc0821749984d22c5cbdb990
  - enabled: 1
    path: Assets/levellar/groundskin.unity
    guid: abe5fff0349e5fe418c8a3208837ca16
  - enabled: 1
    path: Assets/levellar/bridgeskins.unity
    guid: 4dd29866982e88e4fab70cd92cdf28c2
  - enabled: 1
    path: Assets/levellar/ballskin.unity
    guid: fde1f425c2aca33419acc6b9fa4045f5
  - enabled: 1
    path: Assets/levellar/failed.unity
    guid: 93c4fdb3baefa0d4e9c5c1a621cf72db
  - enabled: 1
    path: Assets/levellar/levelpassed.unity
    guid: 8cb9eacf155b4fd498220fa807abf1b3
  - enabled: 1
    path: Assets/levellar/kontrol.unity
    guid: 634396a38ca88f34288461370a8c4938
  - enabled: 1
    path: Assets/levellar/songs.unity
    guid: b9631330860dfcb4383858fb3f26ff34
  - enabled: 1
    path: Assets/levellar/settings.unity
    guid: 3e5e96ff688b7a24d891dab618be5539
  - enabled: 1
    path: Assets/levellar/the50/01.unity
    guid: c6fb64e476fc7ee49b9d8a003075af0e
  - enabled: 1
    path: Assets/levellar/the50/02.unity
    guid: b306ff1e741e09348adbff1cfd47e8db
  - enabled: 1
    path: Assets/levellar/the50/03.unity
    guid: 3dd2589c7365d4444b42fc645ff1d648
  - enabled: 1
    path: Assets/levellar/the50/04.unity
    guid: ef3128d55a4435448a8a565a527a2b23
  - enabled: 1
    path: Assets/levellar/the50/05.unity
    guid: fae2baea947ff4343ab8a99eebfc917a
  - enabled: 1
    path: Assets/levellar/the50/06.unity
    guid: 312966960f752e749ac3905361e06f89
  - enabled: 1
    path: Assets/levellar/the50/07.unity
    guid: 867b8a25ef9f80d478ed56993838f13e
  - enabled: 1
    path: Assets/levellar/the50/08.unity
    guid: acc849daa01794b42b97c5afc2dfc06b
  - enabled: 1
    path: Assets/levellar/the50/09.unity
    guid: 8e2d554f0c3d5b245a7e25a2aa54f2f2
  - enabled: 1
    path: Assets/levellar/the50/10.unity
    guid: b7bf1f82ee6af4442aac6d1e5dce1b8c
  - enabled: 1
    path: Assets/levellar/the50/11.unity
    guid: c35a491643a8cbe4e95b6efa768f3292
  - enabled: 1
    path: Assets/levellar/the50/12.unity
    guid: 38f6a7c07b0d28b44ab5fc79131af9b4
  - enabled: 1
    path: Assets/levellar/the50/13.unity
    guid: 2ebc968138ab74e4094c313a374b3253
  - enabled: 1
    path: Assets/levellar/the50/14.unity
    guid: 452bc7af22ebc1b4fa15e5e6a15d74bf
  - enabled: 1
    path: Assets/levellar/the50/15.unity
    guid: b259bfba77de1144e9be158507a4add0
  - enabled: 1
    path: Assets/levellar/the50/16.unity
    guid: c9338b363e359544c8b2b2c77f32f7c5
  - enabled: 1
    path: Assets/levellar/the50/17.unity
    guid: 6bd845f06f5a8734486358b8ce06b4a3
  - enabled: 1
    path: Assets/levellar/the50/18.unity
    guid: afc4310999d0e4548b00c097dfde2b61
  - enabled: 1
    path: Assets/levellar/the50/19.unity
    guid: d52dae7efad99d54da19a9cc1c62c76c
  - enabled: 1
    path: Assets/levellar/the50/20.unity
    guid: a0420c974575cdc4bb51cdbdc78c7b9e
  - enabled: 1
    path: Assets/levellar/the50/21.unity
    guid: 82c61a72e549740409fd7d386b292a41
  - enabled: 1
    path: Assets/levellar/the50/22.unity
    guid: 75b6d639001f4d24eb897b8c34b3eba7
  - enabled: 1
    path: Assets/levellar/the50/23.unity
    guid: 16726e65b6bd49f4f9ec3d4e9c339ec8
  - enabled: 1
    path: Assets/levellar/the50/24.unity
    guid: 943c082a8e135d2469a386acc568fb11
  - enabled: 1
    path: Assets/levellar/the50/25.unity
    guid: ad10a64459bb43a4d83f27aa9a4584ea
  - enabled: 1
    path: Assets/levellar/the50/26.unity
    guid: de64aa0436840d94f91e573f50d0fe5d
  - enabled: 1
    path: Assets/levellar/the50/27.unity
    guid: 8fe27411a973eac4bb5aae254c8e6fca
  - enabled: 1
    path: Assets/levellar/the50/28.unity
    guid: 90e8470e3bfbb3346bd09fd9079d7eeb
  - enabled: 1
    path: Assets/levellar/the50/29.unity
    guid: dab05ba7b2f873342ab399c3d4d54e82
  - enabled: 1
    path: Assets/levellar/the50/30.unity
    guid: d8285d6279993ce4d963df3fd1d4e9f4
  - enabled: 1
    path: Assets/levellar/the50/31.unity
    guid: cd2e2efc9509fab429c392c954e2003e
  - enabled: 1
    path: Assets/levellar/the50/32.unity
    guid: 0c5c5188a6953c143b6089cf2afbfcb0
  - enabled: 1
    path: Assets/levellar/the50/33.unity
    guid: 3c19cd7b8ae17fb439ce0b0194b28981
  - enabled: 1
    path: Assets/levellar/the50/34.unity
    guid: 7bd844e672e30e64a843c477ea7bec39
  - enabled: 1
    path: Assets/levellar/the50/35.unity
    guid: ee247883a98047f4aa5038be158dd0a9
  - enabled: 1
    path: Assets/levellar/the50/36.unity
    guid: 844b41857f4df8c4ba618ebbb9abf42f
  - enabled: 1
    path: Assets/levellar/the50/37.unity
    guid: a032de6c58d00224ab9debc7fd8d7cd1
  - enabled: 1
    path: Assets/levellar/the50/38.unity
    guid: 22084fdf9d642f94f9587391c2ba6775
  - enabled: 1
    path: Assets/levellar/the50/39.unity
    guid: 682e27854d6478d499d183be5ac84d07
  - enabled: 1
    path: Assets/levellar/the50/40.unity
    guid: 85ff978b511dced4880eb9f02914a73a
  - enabled: 1
    path: Assets/levellar/the50/41.unity
    guid: 5828921f0323b3d46aca5694d422ceea
  - enabled: 1
    path: Assets/levellar/the50/42.unity
    guid: e6ab0dae205f8bf49a344c8e8d2febe7
  - enabled: 1
    path: Assets/levellar/the50/43.unity
    guid: c98d9366676295d4a81d5f5af76339a1
  - enabled: 1
    path: Assets/levellar/the50/44.unity
    guid: 48c201f162cdfcd4f86b67f663cd9aea
  - enabled: 1
    path: Assets/levellar/the50/45.unity
    guid: 8aed0da3f4afa0040a48d2ec78c634f4
  - enabled: 1
    path: Assets/levellar/the50/46.unity
    guid: 405308cebd4927447a8675b128918f06
  m_configObjects: {}
